{
  "id": "T_ClockTower",
  "biome": "SewerOld",
  "mobs": [],
  "cellBonus": 0,
  "mobDensity": 0,
  "eliteWanderChance": 0,
  "eliteRoomChance": 0,
  "flags": 0,
  "lootFlags": 27,
  "specificLoots": [],
  "goldBonus": 0,
  "index": 36,
  "group": 1,
  "transitionTo": "BeholderPit",
  "tripleUps": 0,
  "doubleUps": 0,
  "baseMobTier": 14,
  "props": {
    "viewerY": -1,
    "musicLoop": "music/templecutpart2.ogg"
  },
  "specificSubBiome": [],
  "baseLootLevel": 5,
  "worldDepth": 4,
  "loreDescriptions": [],
  "name": "Boss Rush: Conjunctivius",
  "__separator_group_ID": 1,
  "__separator_group_Name": "Transition",
  "__original_Index": 36
}