{
  "status": 3,
  "rarity": 3,
  "levels": [],
  "sprites": [
    {
      "spriteId": "alchemyDesk",
      "cx": 4.5,
      "cy": 10,
      "blendMode": 0,
      "depth": 0,
      "offsetX": 1.5,
      "offsetY": 2,
      "layerConf": "MainBackWalls",
      "light": "LoreAlchemyDesk"
    },
    {
      "spriteId": "alchemyDeskAdd",
      "cx": 4.65,
      "cy": 10,
      "blendMode": 1,
      "depth": 0,
      "offsetX": 0,
      "offsetY": 0
    },
    {
      "spriteId": "collectorCrates3",
      "cx": 2,
      "cy": 9,
      "blendMode": 0,
      "depth": 0,
      "offsetX": 1,
      "offsetY": 1,
      "layerConf": "MainBackWalls",
      "light": "LoreAlchemyCrates"
    },
    {
      "spriteId": "collectorCrates1",
      "cx": 15,
      "cy": 16,
      "blendMode": 0,
      "depth": 0,
      "offsetX": 1.5,
      "offsetY": 1.5,
      "layerConf": "MainBackWalls",
      "light": "LoreAlchemyCrates"
    },
    {
      "spriteId": "shelfBig",
      "cx": 3.5,
      "cy": 17,
      "blendMode": 0,
      "depth": 0,
      "offsetX": 3,
      "offsetY": 4,
      "layerConf": "MainBackWalls",
      "light": "LoreLightLow"
    },
    {
      "spriteId": "researchDiary6",
      "cx": 3.5,
      "cy": 7,
      "blendMode": 0,
      "depth": 0,
      "offsetX": 5,
      "offsetY": 1.5,
      "layerConf": "MainBackWalls",
      "light": "LoreLightLow"
    }
  ],
  "examinables": [
    {
      "id": "desk",
      "events": [
        {
          "lookOpposite": false,
          "isNpcSpeech": false,
          "dropLoot": false,
          "destroyThisLine": false,
          "destroyExaminable": false,
          "color": 7032611,
          "text": "DIFFICULTY: X\nSONG: Y"
        }
      ],
      "label": "Stage info",
      "autoExamOnce": false,
      "hideToolTip": false
    },
    {
      "id": "insects",
      "autoExamOnce": false,
      "hideToolTip": false,
      "events": [
        {
          "lookOpposite": false,
          "isNpcSpeech": true,
          "destroyThisLine": false,
          "destroyExaminable": false,
          "anim": "remain",
          "text": "",
          "dropLoot": false
        }
      ],
      "label": "Bulletin"
    }
  ],
  "room": "aBRLore10Start",
  "Intention": "Boss Rush info",
  "structMode": 1,
  "onlyUseOnce": false,
  "fxEmitters": [],
  "arc": 0,
  "__separator_group_ID": -1,
  "__separator_group_Name": "",
  "__original_Index": 94
}