{
  "status": 3,
  "rarity": 3,
  "levels": [],
  "sprites": [
    {
      "spriteId": "researchDiary6",
      "cx": 3.5,
      "cy": 7,
      "blendMode": 0,
      "depth": 0,
      "offsetX": 5,
      "offsetY": 1.5,
      "layerConf": "MainBackWalls",
      "light": "LoreLightLow"
    }
  ],
  "examinables": [
    {
      "id": "insects",
      "autoExamOnce": false,
      "hideToolTip": false,
      "events": [
        {
          "lookOpposite": false,
          "isNpcSpeech": false,
          "dropLoot": false,
          "destroyThisLine": false,
          "destroyExaminable": false,
          "text": "Et classés par type.",
          "anim": "idle",
          "pauseS": 0.4
        }
      ],
      "label": "Bulletin"
    }
  ],
  "room": "aBRLore11End",
  "Intention": "Boss Rush info",
  "structMode": 1,
  "onlyUseOnce": false,
  "fxEmitters": [],
  "arc": 0,
  "__separator_group_ID": -1,
  "__separator_group_Name": "",
  "__original_Index": 97
}