{
  "id": "aBRAssExit",
  "active": true,
  "flags": 4,
  "width": 10,
  "height": 7,
  "tileProps": [],
  "layers": [
    {
      "name": "col",
      "data": {
        "file": "editor/cols.png",
        "size": 16,
        "stride": 4,
        "data": "AQABAAEAAQABAAEAAQABAAEAAQAAAAAAAAAAAAAAAAAAAAAAAAABAAAAAAAAAAAAAAAAAAAAAAAAAAEAAAAAAAAAAAAAAAAAAAAAAAAAAQAAAAAAAAAAAAAAAAAAAAAAAAABAAAAAAAAAAAAAAAAAAAAAAAAAAEAAQABAAEAAQABAAEAAQABAAEAAQA="
      }
    },
    {
      "name": "lnk",
      "data": {
        "file": "editor/links.png",
        "size": 16,
        "stride": 4,
        "data": "AAAAAAAAAAAAAAAAAAAAAAAAAAACAAAAAAAAAAAAAAAAAAAAAAAAAAIAAAAAAAAAAAAAAAAAAAAAAAAAAgAAAAAAAAAAAAAAAAAAAAAAAAACAAAAAAAAAAAAAAAAAAAAAAAAAAIAAAAAAAAAAAAAAAAAAAAAAAAAAAAAAAAAAAAAAAAAAAAAAAAAAAA="
      }
    }
  ],
  "markers": [
    {
      "x": 4,
      "y": 2,
      "marker": "ZDoor",
      "width": 4,
      "height": 4
    },
    {
      "x": 2,
      "y": 5,
      "marker": "KeyLockedDoor",
      "width": 1,
      "height": 1,
      "item": "CemSecretKey"
    }
  ],
  "type": "GenericZDoor",
  "props": {
    "tileSize": 16,
    "layers": [
      {
        "l": "col",
        "p": {
          "alpha": 1
        }
      },
      {
        "l": "lnk",
        "p": {
          "alpha": 1
        }
      },
      {
        "l": "markers",
        "p": {
          "alpha": 0.5
        }
      }
    ]
  },
  "group": 53,
  "__separator_group_ID": 53,
  "__separator_group_Name": "alaahBossRush",
  "__original_Index": 1234
}